<?xml version="1.0" encoding="UTF-8" standalone="no"?>
<!-- Created with Inkscape (http://www.inkscape.org/) -->

<svg
   width="1920"
   height="75"
   viewBox="0 0 508 19.84375"
   version="1.1"
   id="svg5586"
   xmlns="http://www.w3.org/2000/svg"
   xmlns:svg="http://www.w3.org/2000/svg">
  <defs
     id="defs5583" />
  <g
     id="layer1"
     transform="translate(45.162816,-177.76329)">
    <g
       id="g4855"
       transform="matrix(0.99972608,0,0,1.0176887,-46.021808,177.76329)">
      <rect
         style="fill:#ffcf0b;fill-opacity:1;stroke-width:0.186068"
         id="rect4843"
         width="508.13919"
         height="18.041031"
         x="0.85922778"
         y="1.45781" />
      <path
         style="fill:#ed1a23;fill-opacity:1;stroke-width:0.264583"
         d="M 508.99841,3.18551 420.48781,18.01191 366.62191,15.1047 274.34746,9.59587 108.18947,17.14671 0.97463777,12.96864 51.498728,3.01509 173.02241,3.6825 292.7107,4.96169 l 87.76402,-0.22247 83.8708,-1.00111 43.10337,-2.2803 z"
         id="path3067" />
      <path
         style="fill:#025eac;fill-opacity:1;stroke-width:0.264583"
         d="M 0.99840777,15.6402 149.75847,5.58448 274.19014,7.78681 360.08103,15.65228 508.99841,3.18551 V 0 H 0.85922777 Z"
         id="path2363" />
    </g>
  </g>
</svg>
