<svg width="0" height="0" class="hidden">
  <symbol version="1.1" id="section-top" inkscapeVersion="1.2 (dc2aedaf03, 2022-05-15)" sodipodiDocname="section-top.svg" xmlnsInkscape="http://www.inkscape.org/namespaces/inkscape" xmlnsSodipodi="http://sodipodi.sourceforge.net/DTD/sodipodi-0.dtd" xmlns="http://www.w3.org/2000/svg" xmlnsSvg="http://www.w3.org/2000/svg" viewBox="0 0 203.19873 46.301794">
    <sodipodi:namedview id="namedview17557" pagecolor="#505050" bordercolor="#eeeeee" borderopacity="1" inkscapeShowpageshadow="0" inkscapePageopacity="0" inkscapePagecheckerboard="0" inkscapeDeskcolor="#505050" inkscapeDocumentUnits="mm" showgrid="false" inkscapeZoom="1.1893044" inkscapeCx="243.4196" inkscapeCy="253.92995" inkscapeWindowWidth="1920" inkscapeWindowHeight="1166" inkscapeWindowX="-11" inkscapeWindowY="-11" inkscapeWindowMaximized="1" inkscapeCurrentLayer="layer1"></sodipodi:namedview>
    <defs id="defs17552"></defs>
    <g inkscapeLabel="Layer 1" inkscapeGroupmode="layer" id="layer1" transform="translate(0,-106.85471)">
      <path d="m 0,130.43433 53.815968,-4.28721 47.783392,-9.43184 101.59937,15.86265 0,14.28624 L 0,153.1565 Z" id="path392" sodipodiNodetypes="ccccccc"></path>
      <path d="m 0,153.1565 203.19873,-46.30179 0,40.00946 z" id="path336" sodipodiNodetypes="cccc"></path>
      <path d="M 0,153.1565 H 203.19873 V 132.57793 Z" id="path231" sodipodiNodetypes="cccc"></path>
    </g>
  </symbol>
  <symbol version="1.1" id="section-bottom" inkscapeVersion="1.2 (dc2aedaf03, 2022-05-15)" sodipodiDocname="section-bottom.svg" xmlnsInkscape="http://www.inkscape.org/namespaces/inkscape" xmlnsSodipodi="http://sodipodi.sourceforge.net/DTD/sodipodi-0.dtd" xmlns="http://www.w3.org/2000/svg" xmlnsSvg="http://www.w3.org/2000/svg" viewBox="0 0 203.20001 46.302086">
    <sodipodi:namedview id="namedview18217" pagecolor="#505050" bordercolor="#eeeeee" borderopacity="1" inkscapeShowpageshadow="0" inkscapePageopacity="0" inkscapePagecheckerboard="0" inkscapeDeskcolor="#505050" inkscapeDocumentUnits="mm" showgrid="false" inkscapeZoom="3.3638608" inkscapeCx="189.81166" inkscapeCy="85.318631" inkscapeWindowWidth="1920" inkscapeWindowHeight="1166" inkscapeWindowX="-11" inkscapeWindowY="-11" inkscapeWindowMaximized="1" inkscapeCurrentLayer="layer1"></sodipodi:namedview>
    <defs id="defs18212"></defs>
    <g inkscapeLabel="Layer 1" inkscapeGroupmode="layer" id="layer1" transform="translate(-1.1e-6,-99.810879)">
      <path d="m 203.20001,122.5332 -53.81631,4.28723 -47.78369,9.4319 L 1.1e-6,120.38958 V 108.54155 L 203.20001,99.810879 Z" id="path18244" sodipodiNodetypes="ccccccc"></path>
      <path d="M 203.20001,99.810879 1.1e-6,146.11296 v -34.42523 z" id="path18246" sodipodiNodetypes="cccc"></path>
      <path d="M 203.20001,99.810879 H 1.1e-6 v 20.578701 z" id="path18248" sodipodiNodetypes="cccc"></path>
    </g>
  </symbol>
</svg>